*** Darwin 15x3 ***
Turn = 0.
  012
0 hr.
1 f.f
2 t.h
3 ...
4 ...
5 fr.
6 ...
7 tr.
8 tr.
9 tf.
0 ...
1 f.r
2 t..
3 .rh
4 .rr

Turn = 1.
  012
0 h.r
1 f.f
2 t.h
3 ...
4 ...
5 rr.
6 ...
7 tr.
8 t.r
9 tf.
0 ...
1 t.r
2 t.h
3 rr.
4 .r.

Turn = 2.
  012
0 h.r
1 f.f
2 t.h
3 ...
4 ...
5 rr.
6 ...
7 rr.
8 t.r
9 tt.
0 ..r
1 t.h
2 tr.
3 r..
4 r..

Turn = 3.
  012
0 h.r
1 trh
2 t..
3 ...
4 .r.
5 ...
6 r..
7 rr.
8 .r.
9 ttr
0 ..r
1 trh
2 t..
3 r..
4 r..

Turn = 4.
  012
0 h.r
1 trr
2 t..
3 .r.
4 ...
5 ...
6 r..
7 .r.
8 t.r
9 ttr
0 .rr
1 t.h
2 t..
3 t..
4 r..

Turn = 5.
  012
0 h.r
1 ttr
2 tr.
3 ...
4 ...
5 ...
6 .r.
7 r..
8 t.r
9 trr
0 .rr
1 t.h
2 t..
3 t..
4 t..

Turn = 6.
  012
0 h.r
1 ttr
2 tt.
3 ...
4 ...
5 ...
6 ..r
7 r.r
8 t..
9 trr
0 .rr
1 t.h
2 t..
3 t..
4 t..

Turn = 7.
  012
0 t.r
1 trr
2 tt.
3 ...
4 ...
5 ...
6 r.r
7 ..r
8 t..
9 trr
0 rrh
1 t..
2 t..
3 t..
4 t..

Turn = 8.
  012
0 tr.
1 trr
2 tt.
3 ...
4 ...
5 r..
6 ..r
7 ..r
8 t.r
9 tth
0 tr.
1 t..
2 t..
3 t..
4 t..

Turn = 9.
  012
0 rr.
1 tr.
2 ttt
3 ...
4 r..
5 ...
6 .r.
7 ..r
8 t.r
9 tth
0 tt.
1 t..
2 t..
3 t..
4 t..

Turn = 10.
  012
0 rr.
1 r.r
2 rtt
3 r..
4 ...
5 ...
6 r..
7 ..r
8 t.r
9 tth
0 tt.
1 t..
2 t..
3 t..
4 t..

*** Darwin 3x2 ***
Turn = 0.
  01
0 ..
1 .r
2 rh

Turn = 1.
  01
0 ..
1 .r
2 rr

Turn = 2.
  01
0 ..
1 rr
2 .r

Turn = 3.
  01
0 r.
1 r.
2 r.

Turn = 4.
  01
0 r.
1 r.
2 r.

Turn = 5.
  01
0 rr
1 ..
2 r.

Turn = 6.
  01
0 rr
1 ..
2 .r

Turn = 7.
  01
0 r.
1 .r
2 .r

Turn = 8.
  01
0 r.
1 .r
2 .r

Turn = 9.
  01
0 r.
1 r.
2 r.

Turn = 10.
  01
0 r.
1 r.
2 r.

*** Darwin 4x16 ***
Turn = 0.
  0123456789012345
0 t.ffft..hr....f.
1 ..tfhr...t.tr...
2 .....r.rtt..h...
3 h..f.......f...f

Turn = 1.
  0123456789012345
0 t.ffft..hr....f.
1 ..ttrr..rt.tt...
2 h.....rr.t.h....
3 ...f.......f...f

Turn = 2.
  0123456789012345
0 t.ffrt..r.r...f.
1 h.ttrr..rt.tt...
2 ......r.tth.....
3 ...f.......f...f

Turn = 3.
  0123456789012345
0 t.tftt..rt.t..f.
1 h.ttt....t.tt...
2 .....r..tth.....
3 ...f..r....f...f

Turn = 4.
  0123456789012345
0 t.tttt..rt.t..f.
1 h.ttt....t.tt...
2 ........tth.....
3 ...f.rr....f...f

Turn = 5.
  0123456789012345
0 t.tttt..rr.t..f.
1 t.ttt....t.tt...
2 ........ttt.....
3 ...f.rr....f...f

Turn = 6.
  0123456789012345
0 t.tttt..rr.t..f.
1 t.ttt....t.tt...
2 ......r.ttt.....
3 ...f.r.....f...f

Turn = 7.
  0123456789012345
0 t.tttt...r.t..f.
1 t.ttt.r.r.rtt...
2 ........ttt.....
3 ...f.r.....f...f

Turn = 8.
  0123456789012345
0 t.ttttr....r..f.
1 t.ttt...rrtrt...
2 ........ttt.....
3 ...f..r....f...f

Turn = 9.
  0123456789012345
0 t.ttttr....t..f.
1 t.ttt...rrttt...
2 ........rrt.....
3 ...f...r...f...f

Turn = 10.
  0123456789012345
0 t.ttttt....t..f.
1 t.ttt...rrttt...
2 ........r.t.....
3 ...f....rr.f...f

*** Darwin 16x11 ***
Turn = 0.
  01234567890
0 ..fh.....h.
1 rt.f.r.....
2 r...t.r.hht
3 ..f..fff...
4 r.f.ht.r...
5 ..t..f.ht.f
6 ...........
7 ......t..hf
8 .......fh..
9 ..........f
0 .....f.ff..
1 ...........
2 .f....rtf..
3 ...........
4 f.t.......h
5 ..h........

Turn = 1.
  01234567890
0 r.f.hr..h..
1 .t.f.......
2 ....tr.h.ht
3 r.f..fff...
4 ..th.t.r...
5 r.t..f.rt.f
6 ...........
7 ......t.h.f
8 .......f...
9 ........h.f
0 .....f.ff..
1 ...........
2 .f.....tt..
3 ......r....
4 f.t........
5 ..h.......h

Turn = 2.
  01234567890
0 r.f.hr.h...
1 .t.f.......
2 ....rrh..tt
3 ..t..tff...
4 r.th.t.r...
5 ..t..f.rr.f
6 r..........
7 ......th..f
8 .......f...
9 ........h.f
0 .....f.ff..
1 ...........
2 .f.....tt..
3 ...........
4 f.t...r....
5 ..h.......h

Turn = 3.
  01234567890
0 r.f.h.rh...
1 .t.f.......
2 ....rt...tt
3 ..t.rtff...
4 ..th.tr.r..
5 r.t..f.r..f
6 ...........
7 r.....th..f
8 .......f...
9 ........h.f
0 .....f.ff..
1 ...........
2 .f.....tt..
3 ...........
4 f.t........
5 ..h...r...h

Turn = 4.
  01234567890
0 r.f..hrr...
1 .t.f.......
2 ...r.t...tt
3 ..t..tffr..
4 ..thtrrr...
5 ..t..f....f
6 r..........
7 ......th..f
8 r......f...
9 ........h.f
0 .....f.ff..
1 ...........
2 .f.....tt..
3 ...........
4 f.t........
5 ..t...r...h

Turn = 5.
  01234567890
0 r.f..hrr...
1 .t.f.......
2 ..t..t..rtt
3 ..t..tfr...
4 ..thrrrr...
5 ..t..f....f
6 ...........
7 r.....tt..f
8 .......f...
9 r.......h.f
0 .....f.ff..
1 ...........
2 .f.....tt..
3 ...........
4 f.t........
5 ..t..r....h

Turn = 6.
  01234567890
0 ..f..hr....
1 rt.f..r.r..
2 ..t..t...tt
3 ..t..trr...
4 ..ttrrrr...
5 ..t..f....f
6 ...........
7 ......tt..f
8 r......t...
9 ........h.f
0 r....f.ff..
1 ...........
2 .f.....tt..
3 ...........
4 f.t........
5 ..t.r.....h

Turn = 7.
  01234567890
0 ..f..rr.r..
1 .t.f.......
2 r.t..tr..tt
3 ..t..rrr...
4 ..ttrrrr...
5 ..t..f....f
6 ...........
7 ......tt..f
8 .......t...
9 r.......h.f
0 .....f.ff..
1 r..........
2 .f.....tt..
3 ...........
4 f.t........
5 ..tr......h

Turn = 8.
  01234567890
0 ..f..rr.r..
1 .t.f.......
2 ..t..tr..tt
3 r.t..trr...
4 ..tttt.r...
5 ..t..fr...f
6 ...........
7 ......tt..f
8 .......t...
9 ........h.f
0 r....f.ff..
1 ...........
2 rf.....tt..
3 ...........
4 f.t........
5 ..rr......h

Turn = 9.
  01234567890
0 ..f..rr..r.
1 .t.f.......
2 ..t..t.r.tt
3 ..t..trr...
4 r.tttt..r..
5 ..t..f....f
6 ......r....
7 ......tt..f
8 .......t...
9 ........h.f
0 .....f.ff..
1 r..........
2 .f.....tt..
3 r..........
4 f.t........
5 ..tt......h

Turn = 10.
  01234567890
0 ..f..r.r..r
1 .t.f.......
2 ..t..t..rtt
3 ..t..trr...
4 ..tttt...r.
5 r.t..f....f
6 ......r....
7 ......rr..f
8 .......t...
9 ........h.f
0 .....f.ff..
1 ...........
2 rf.....tt..
3 r..........
4 .rt........
5 ..tt......h

*** Darwin 6x13 ***
Turn = 0.
  0123456789012
0 rth.ht.tfff.f
1 .thr.thr.hr.t
2 fh...r.f..h.r
3 r..trt.frh.hh
4 .t.t.ft.th...
5 .hrf.rf.th.f.

Turn = 1.
  0123456789012
0 .t.hhthtfff.f
1 tt...t.r.hr.t
2 f.hr.t..rr..r
3 .h.ttt.frh.h.
4 rt.t.ft.tt.h.
5 .rrf.tt.t.hf.

Turn = 2.
  0123456789012
0 .t.hhthtfff.f
1 tt...t.t.h..t
2 t..r.t..rrr.t
3 .tht.t.rrhh..
4 .t.trtt.tt.h.
5 rrrf.tt.t.hf.

Turn = 3.
  0123456789012
0 .t.htthtfff.f
1 tt...t.t.r..t
2 t..r.t..rrr.t
3 .t..rtrr.rr..
4 .tht.tt.tt.h.
5 rrrfrtt.t.hf.

Turn = 4.
  0123456789012
0 .t.htthttrf.f
1 tt...t.t.r..t
2 t....t..rrr.t
3 .t.rrrtr.rr..
4 .ttt.tt.tr.h.
5 rrrrrtt.t.hf.

Turn = 5.
  0123456789012
0 .t.ttthttrt.t
1 tt...t.t.r..t
2 t....t..rr..t
3 .t.rrrr.rr...
4 .trt.ttrrrrh.
5 rttrrtt.t.hf.

Turn = 6.
  0123456789012
0 .t.ttttttrt.t
1 tt...t.t.r..t
2 t....t.rr...t
3 .t.rrrrrrr...
4 .trr.t..rrrr.
5 rrrrrttrt.rr.

Turn = 7.
  0123456789012
0 .t.ttttttrt.t
1 tt...t.t.r..t
2 t....trr....t
3 .t.rrrrrrr...
4 .rtr..r.rrrr.
5 rrrrrttrr.rr.

Turn = 8.
  0123456789012
0 .t.ttttttrt.t
1 tt...t.t.r..t
2 t....rrrr...t
3 .tr.r.r.r....
4 .rrr.rrrrrrr.
5 rrrrrrrrr.r.r

Turn = 9.
  0123456789012
0 .t.tttttttt.t
1 tt...t.trt..t
2 t....r......t
3 .rrrrrrrr....
4 .rrr.rrrr.r..
5 rrr.rrrrrrrrr

Turn = 10.
  0123456789012
0 .t.tttttrtt.t
1 tt...t.ttt..t
2 t..r.t..r...t
3 rr.r.rrr.....
4 .rr.rrrrr..rr
5 rrr.rrrrrrrr.

*** Darwin 5x11 ***
Turn = 0.
  01234567890
0 t..h.t.httt
1 f..fr....f.
2 f.r.r.h....
3 ..hfr..h..h
4 t.r.t......

Turn = 1.
  01234567890
0 t.h..th.ttt
1 f..rr.h..t.
2 f.r.r......
3 .r.rr...hh.
4 t..rt......

Turn = 2.
  01234567890
0 th...th.ttt
1 f.rr..h..t.
2 f..r.r.....
3 r.rrr...hh.
4 t..r.......

Turn = 3.
  01234567890
0 th...th.ttt
1 trrr..h..t.
2 f...r.r....
3 r.r.....hh.
4 t.r.r......

Turn = 4.
  01234567890
0 th.r.th.ttt
1 rrr.r.h..t.
2 f......r...
3 rr......hh.
4 r.r..r.....

Turn = 5.
  01234567890
0 ttrrrtt.ttt
1 rr....h..t.
2 r.......r..
3 rr......hh.
4 .rr...r....

Turn = 6.
  01234567890
0 ttrrrtt.ttt
1 rt....t..t.
2 rr.......r.
3 r.......hh.
4 .rr....r...

Turn = 7.
  01234567890
0 ttrrrrt.ttt
1 rr....t..t.
2 rr........r
3 .r......hh.
4 r..r....r..

Turn = 8.
  01234567890
0 rrtrrrt.ttt
1 rr....t..t.
2 .r........r
3 rr......hh.
4 r...r....r.

Turn = 9.
  01234567890
0 rrrrr.t.ttt
1 rr...rt..t.
2 ..r........
3 r.r.....hhr
4 r....r....r

Turn = 10.
  01234567890
0 rrr..tt.ttt
1 rrr...t..t.
2 ...r.r.....
3 rr.r....hhr
4 ......r...r

*** Darwin 2x8 ***
Turn = 0.
  01234567
0 .rh..h.h
1 r......h

Turn = 1.
  01234567
0 .rr....h
1 .r...h.h

Turn = 2.
  01234567
0 .r.r...h
1 ..r..h.h

Turn = 3.
  01234567
0 .r..r..h
1 ...r.h.h

Turn = 4.
  01234567
0 ..r..r.h
1 ....rh.h

Turn = 5.
  01234567
0 ...r..rh
1 ....rr.h

Turn = 6.
  01234567
0 ....r.rr
1 ....rr.r

Turn = 7.
  01234567
0 .....rrr
1 ....rrr.

Turn = 8.
  01234567
0 .....rrr
1 ...rrr..

Turn = 9.
  01234567
0 .....rrr
1 ..rrr...

Turn = 10.
  01234567
0 ....r.r.
1 .rrr..r.

*** Darwin 10x2 ***
Turn = 0.
  01
0 ff
1 .h
2 .f
3 t.
4 ..
5 t.
6 ht
7 .r
8 ht
9 .f

Turn = 1.
  01
0 ff
1 .h
2 .f
3 t.
4 ..
5 t.
6 tt
7 r.
8 .t
9 hf

Turn = 2.
  01
0 ff
1 .h
2 .f
3 t.
4 ..
5 t.
6 tt
7 r.
8 .t
9 hf

Turn = 3.
  01
0 ff
1 .h
2 .f
3 t.
4 ..
5 t.
6 rt
7 r.
8 .t
9 hf

Turn = 4.
  01
0 ff
1 .h
2 .f
3 t.
4 ..
5 t.
6 rt
7 r.
8 .t
9 ht

Turn = 5.
  01
0 ff
1 .h
2 .f
3 t.
4 ..
5 t.
6 rt
7 .r
8 .t
9 ht

Turn = 6.
  01
0 ff
1 .h
2 .f
3 t.
4 ..
5 t.
6 tt
7 .r
8 .t
9 ht

Turn = 7.
  01
0 ff
1 .h
2 .f
3 t.
4 ..
5 t.
6 tt
7 .t
8 .t
9 tt

Turn = 8.
  01
0 ff
1 .h
2 .f
3 t.
4 ..
5 t.
6 tt
7 .t
8 .t
9 tt

Turn = 9.
  01
0 ff
1 .h
2 .f
3 t.
4 ..
5 t.
6 tt
7 .t
8 .t
9 tt

Turn = 10.
  01
0 ff
1 .h
2 .f
3 t.
4 ..
5 t.
6 tt
7 .t
8 .t
9 tt

*** Darwin 13x12 ***
Turn = 0.
  012345678901
0 h..ht..fh.ff
1 t.httr.trt..
2 trfrt.trhft.
3 f..rff.rr.t.
4 frf.htt.frr.
5 .rt..hf.ft..
6 tr.f.tf.r.ht
7 ..thhrt....r
8 tr.rrf..f.rh
9 rrffrf...f.t
0 .r.t.ftthftt
1 r....hf...ht
2 ..frhf.rf...

Turn = 1.
  012345678901
0 h.hht..fh.ff
1 t..ttt.ttt..
2 ttttr.rrtft.
3 f..rrf.rr.t.
4 frt.ttt.rr.r
5 r.t..hfrrr..
6 t..f.rt..h.t
7 .tthrrt....t
8 tt.rrf..frh.
9 rrrr.f...f.t
0 .r.trftttftt
1 .r..h.tr..tt
2 ..frr.r.f...

Turn = 2.
  012345678901
0 h.hht..fh.ff
1 t..ttt.ttt..
2 ttttr.rrttt.
3 f..rtf.rr.t.
4 rrt.ttt.rr.r
5 r.t..hrrrr..
6 t..f.rt.h..t
7 .tthrrt....t
8 tt.rrf..rrh.
9 rrrr.f...f.t
0 ..rttftrtftt
1 ..r.t.tr..tt
2 ..fr.r.rf...

Turn = 3.
  012345678901
0 t.hht..th.ff
1 t..ttt.ttt..
2 ttttr..rttt.
3 r..ttttrr.tr
4 rrt.ttt.rr..
5 r.t..tttr...
6 t..f.rth.r.t
7 .tthrrt....t
8 tt.rr.rrrh..
9 r.rr.f...t.t
0 .rrrrftrtttt
1 ...r..tr..tt
2 ..frr.rrr...

Turn = 4.
  012345678901
0 t.htt..tt.ff
1 t..ttt.ttt..
2 ttttr..rrttr
3 rr.ttttrrrt.
4 .tt.ttt.r...
5 .rt..tttr...
6 t..f.rrt...t
7 .ttttrr..r.t
8 tt.r.rrrrt..
9 .rrr.f...t.t
0 ..rr.ftrtttt
1 .r.rr.tr..tt
2 ..frr.ttt...

Turn = 5.
  012345678901
0 t.htt..tt.ff
1 t..ttt.ttt.r
2 ttttt..rtrt.
3 t.rttttrrrt.
4 .tt.ttt..r..
5 .r.r.ttt.r..
6 t..f.ttt...t
7 .tttrrt.rr.t
8 tt.rrr..r...
9 .rrr.frr.t.t
0 ..r..ftttttt
1 ...rr.tt..tt
2 .rfr.rttt...

Turn = 6.
  012345678901
0 t.ttt..tt.fr
1 t..ttt.ttt.r
2 ttttt..trrt.
3 t.rttttttrt.
4 .tt.ttt...r.
5 ..r.rttt..r.
6 t..t.tttr..t
7 .ttrrtt....t
8 tt.rrr.r.r..
9 ..rrr.rr.t.t
0 .r.r.frttttt
1 ...rr.rt..tt
2 .rrr.rrtt...

Turn = 7.
  012345678901
0 t.ttt..tt.fr
1 t..ttt.ttt.r
2 ttttt..tttt.
3 t.tttttttrr.
4 .tt.ttt....r
5 ...rrtrtr..r
6 t..r.trr...t
7 .ttrrtt....t
8 ttrrrtr..r..
9 ...rr.rr.r.t
0 ....rfrttrrr
1 .r.r..rr..tt
2 .rrrrrrrt...

Turn = 8.
  012345678901
0 t.ttt..tt.fr
1 t..ttt.tttr.
2 ttttt..tttt.
3 t.ttttttttt.
4 .tt.ttt.r..r
5 ...rrttr...t
6 t..r.trr...t
7 .ttrrtt....t
8 ttrrrrr..r..
9 ...rrr.r.r.t
0 ....rrrttrtr
1 .r.rrr.r..t.
2 .rr.rrrrt..r

Turn = 9.
  012345678901
0 t.ttt..tt.fr
1 t..ttt.tttt.
2 ttttt..tttt.
3 t.ttttttrtt.
4 .tt.ttt.r..r
5 ...rtttr...t
6 t.r..trr...t
7 .ttrrtt....t
8 ttrrrr..r...
9 ..rrr.rr.rrt
0 ...rrrrtt.tt
1 ..r.rrr...t.
2 .rr.rrrrt..r

Turn = 10.
  012345678901
0 t.ttt..tt.f.
1 t..ttt.ttttr
2 ttttt..tttt.
3 t.tttttrrtt.
4 .tt.ttt.r..r
5 ..r.tttt...t
6 tr..rtrt...t
7 .ttr.tt....t
8 ttrrr.rr.r..
9 ..rrrrrr..tr
0 ...rr.r.t.tr
1 .rrrrrrr..t.
2 ....rrrtt..r

*** Darwin 13x14 ***
Turn = 0.
  01234567890123
0 rtr...hfff.hht
1 .hr.thh...f...
2 ...hrhf.t.....
3 tf.h...r...hht
4 h......f.tr...
5 ftffrtf.rt.rt.
6 h..r.....frt.h
7 .....h....ff..
8 .rrhh.......ff
9 t..f.f.t.fff.r
0 ...f..t..ft.ht
1 r...h....t..f.
2 r.h.....f....t

Turn = 1.
  01234567890123
0 ttr..hhfffh.tt
1 ....rh....f...
2 .trhrhfrt.....
3 tt.h........ht
4 h...r..f.trr..
5 fttf.tfr.t.r.r
6 ..r......trt.h
7 h.r.......rf..
8 .r.hhh......ff
9 t..f.f.t.fffr.
0 r..f..t..tth.t
1 r....h...t..f.
2 ...h....f....t

Turn = 2.
  01234567890123
0 trr..h.fffh.tt
1 ...rr.hr..f...
2 .t.hrhf.t.....
3 ttrhr.......ht
4 h......f.trr..
5 fttt.trr.t..rr
6 .rr......trt.h
7 ..........r...
8 h..hhh.....rff
9 rr.f.f.t.ffrr.
0 r..f..t..tth.t
1 r.....h..t..f.
2 ....h...f....t

Turn = 3.
  01234567890123
0 tr...h.rffh.tt
1 .rrrr.hr..f...
2 .t.hr.f.t.....
3 tt.hr.......tt
4 h.r....f.trr.r
5 ftrt.ttt.t..r.
6 r.r......trr.h
7 ...........r..
8 h..hhh.....rff
9 r..f.f.t.ffrr.
0 rr.f..t..trr.t
1 .r.....h.t..f.
2 .....h..f....t

Turn = 4.
  01234567890123
0 rr..rhrrffh.tt
1 .rrr..h...f...
2 .r.rr.f.t.....
3 tt.hr.......tr
4 h.r....f.ttt.r
5 ttrt.ttt.t....
6 r.r......tttrh
7 ...........t..
8 h..hhh....r.rf
9 .r.f.f.t.tfrr.
0 rr.f..t..trr.t
1 ..r.....ht..f.
2 ......h.f....t

Turn = 5.
  01234567890123
0 r...rrrrffh.tt
1 rr.r..h...f...
2 r.rrr.f.t.....
3 tt.rr.......tr
4 t..r...f.ttt.r
5 ttrr.ttt.t....
6 ...r.....ttt.h
7 r..........tr.
8 ...hhh...r..rr
9 r.rf.f.t.trrr.
0 r.rf..t..trr.t
1 ...r....ht..f.
2 .......hf....t

Turn = 6.
  01234567890123
0 r...rrrr.fh.tt
1 rr.rr.h.r.f...
2 r..rr.f.t.....
3 ttrr........rr
4 t..rr..t.ttt.r
5 ttr..ttt.t....
6 ....r....ttt.h
7 ...........trr
8 r..hhh..r...r.
9 r.rr.f.t.trr.r
0 r.rr..t..tr.rt
1 ....r...ht..f.
2 .......hf....t

Turn = 7.
  01234567890123
0 r..rrrr.rfh.tt
1 r..r.rr.r.f...
2 rr.r...rr.....
3 rrrr........rr
4 t.r..r.t.tttr.
5 ttt..ttt.t....
6 .....r...ttt.r
7 ...........trr
8 r..hhh.r......
9 .rrr.f.t.trrrr
0 .rr...t..tt.rr
1 ...r.r..ht..f.
2 .......hf....t

Turn = 8.
  01234567890123
0 r..rrrr.rrh.tt
1 r..r.r..r.f...
2 rrrr..rr.r...r
3 rr.........r..
4 ttr...rt.ttt..
5 ttt..ttt.t..r.
6 ......r..ttt.r
7 ...........ttr
8 .r.hhhr.......
9 .rr.rf.t.trrrr
0 .r....t..tt.r.
1 ..r...r.tt..fr
2 ...r...hf....t

Turn = 9.
  01234567890123
0 r..rrr.rrrh.tt
1 r.rr...r.rf..r
2 rrr..r....r...
3 rr....rr..r...
4 ttt...t..ttt..
5 ttt..ttt.t...r
6 .......r.tttr.
7 ...........ttt
8 ..rhhrr.......
9 .rr.r..t.tttrr
0 .r...rt..tt.r.
1 ......t.tt..fr
2 ..rr...hf....r

Turn = 10.
  01234567890123
0 .r.rr..rrrh.tr
1 rr.r.r.r.r.r.r
2 rr.....r...r..
3 trr..rr..t....
4 trt....r.ttt.r
5 ttt..ttt.t....
6 ........rtttt.
7 ...........ttt
8 ..rrrr........
9 r.r.rr.t.tttr.
0 ..r...t..ttr.r
1 .....rt.tt..fr
2 ..r.r..hf....r

*** Darwin 8x8 ***
Turn = 0.
  01234567
0 .f......
1 .r.f....
2 ......f.
3 ......f.
4 ..f....h
5 ......f.
6 ..t.t...
7 ........

Turn = 1.
  01234567
0 .f......
1 r..f....
2 ......f.
3 ......f.
4 ..f.....
5 ......fh
6 ..t.t...
7 ........

Turn = 2.
  01234567
0 .f......
1 r..f....
2 ......f.
3 ......f.
4 ..f.....
5 ......f.
6 ..t.t..h
7 ........

Turn = 3.
  01234567
0 rf......
1 ...f....
2 ......f.
3 ......f.
4 ..f.....
5 ......f.
6 ..t.t...
7 .......h

Turn = 4.
  01234567
0 rf......
1 ...f....
2 ......f.
3 ......f.
4 ..f.....
5 ......f.
6 ..t.t...
7 .......h

Turn = 5.
  01234567
0 rf......
1 ...f....
2 ......f.
3 ......f.
4 ..f.....
5 ......f.
6 ..t.t...
7 .......h

Turn = 6.
  01234567
0 rf......
1 ...f....
2 ......f.
3 ......f.
4 ..f.....
5 ......f.
6 ..t.t...
7 .......h

Turn = 7.
  01234567
0 rr......
1 ...f....
2 ......f.
3 ......f.
4 ..f.....
5 ......f.
6 ..t.t...
7 .......h

Turn = 8.
  01234567
0 r.r.....
1 ...f....
2 ......f.
3 ......f.
4 ..f.....
5 ......f.
6 ..t.t...
7 .......h

Turn = 9.
  01234567
0 ...r....
1 r..f....
2 ......f.
3 ......f.
4 ..f.....
5 ......f.
6 ..t.t...
7 .......h

Turn = 10.
  01234567
0 ....r...
1 ...f....
2 r.....f.
3 ......f.
4 ..f.....
5 ......f.
6 ..t.t...
7 .......h
